PCBNEW-LibModule-V1  2022-08-16 02:37:31
# encoding utf-8
Units mm
$INDEX
TSM650N15CRRLG
$EndINDEX
$MODULE TSM650N15CRRLG
Po 0 0 0 15 62faf4db 00000000 ~~
Li TSM650N15CRRLG
Cd TSM650N15CR RLG-2
Kw MOSFET (N-Channel)
Sc 0
At SMD
AR 
Op 0 0 0
T0 -0.825 0.037 1.27 1.27 0 0.254 N V 21 N "Q**"
T1 -0.825 0.037 1.27 1.27 0 0.254 N I 21 N "TSM650N15CRRLG"
DS -2.45 2.912 2.45 2.912 0.2 24
DS 2.45 2.912 2.45 -2.838 0.2 24
DS 2.45 -2.838 -2.45 -2.838 0.2 24
DS -2.45 -2.838 -2.45 2.912 0.2 24
DS -2.45 -2.25 -2.45 -2.25 0.1 21
DS -2.45 -2.25 -2.45 2.5 0.1 21
DS -2.45 2.5 -2.45 2.5 0.1 21
DS -2.45 2.5 -2.45 -2.25 0.1 21
DS 2.45 -2.25 2.45 -2.25 0.1 21
DS 2.45 -2.25 2.45 2.5 0.1 21
DS 2.45 2.5 2.45 2.5 0.1 21
DS 2.45 2.5 2.45 -2.25 0.1 21
DS -5.1 -4.268 3.45 -4.268 0.1 24
DS 3.45 -4.268 3.45 4.342 0.1 24
DS 3.45 4.342 -5.1 4.342 0.1 24
DS -5.1 4.342 -5.1 -4.268 0.1 24
DS -4.1 3.25 -4.1 3.25 0.2 21
DS -4 3.25 -4 3.25 0.2 21
DS -4.1 3.25 -4.1 3.25 0.2 21
DA -4.05 3.25 -4.100 3.25 -1800 0.2 21
DA -4.05 3.25 -4.000 3.25 -1800 0.2 21
DA -4.05 3.25 -4.100 3.25 -1800 0.2 21
$PAD
Po -1.905 2.707
Sh "1" R 0.610 1.270 0 0 0
At SMD N 00888000
Ne 0 ""
$EndPAD
$PAD
Po -0.635 2.707
Sh "2" R 0.610 1.270 0 0 0
At SMD N 00888000
Ne 0 ""
$EndPAD
$PAD
Po 0.635 2.707
Sh "3" R 0.610 1.270 0 0 0
At SMD N 00888000
Ne 0 ""
$EndPAD
$PAD
Po 1.905 2.707
Sh "4" R 0.610 1.270 0 0 0
At SMD N 00888000
Ne 0 ""
$EndPAD
$PAD
Po 1.905 -2.912
Sh "5" R 0.610 0.710 0 0 0
At SMD N 00888000
Ne 0 ""
$EndPAD
$PAD
Po 0.635 -2.912
Sh "6" R 0.610 0.710 0 0 0
At SMD N 00888000
Ne 0 ""
$EndPAD
$PAD
Po -0.635 -2.912
Sh "7" R 0.610 0.710 0 0 0
At SMD N 00888000
Ne 0 ""
$EndPAD
$PAD
Po -1.905 -2.912
Sh "8" R 0.610 0.710 0 0 0
At SMD N 00888000
Ne 0 ""
$EndPAD
$PAD
Po 0.000 -2.402
Sh "9" R 0.310 4.420 0 0 900
At SMD N 00888000
Ne 0 ""
$EndPAD
$PAD
Po 0.000 -0.852
Sh "10" R 2.790 3.910 0 0 900
At SMD N 00888000
Ne 0 ""
$EndPAD
$EndMODULE TSM650N15CRRLG
$EndLIBRARY
